\boolfalse {citerequest}\boolfalse {citetracker}\boolfalse {pagetracker}\boolfalse {backtracker}\relax 
\defcounter {refsection}{0}\relax 
\beamer@endinputifotherversion {3.36pt}
\defcounter {refsection}{0}\relax 
\select@language {english}
\defcounter {refsection}{0}\relax 
\beamer@sectionintoc {2}{SVM regression}{3}{0}{1}
\defcounter {refsection}{0}\relax 
\beamer@sectionintoc {3}{Knn}{5}{0}{2}
\defcounter {refsection}{0}\relax 
\beamer@sectionintoc {4}{SVM - spectral}{6}{0}{3}
\defcounter {refsection}{0}\relax 
\beamer@sectionintoc {5}{Conclusion}{7}{0}{4}
